[gd_scene load_steps=4 format=2]

[ext_resource path="res://scene/Game.gd" type="Script" id=1]
[ext_resource path="res://assets/Desert.tres" type="TileSet" id=2]
[ext_resource path="res://assets/player.png" type="Texture" id=3]

[node name="Game" type="Node2D"]
script = ExtResource( 1 )

[node name="TileMap" type="TileMap" parent="."]
tile_set = ExtResource( 2 )
cell_size = Vector2( 32, 32 )
cell_quadrant_size = 32
cell_custom_transform = Transform2D( 0, 0, 0, 0, 0, 0 )
format = 1

[node name="Player" type="Sprite" parent="."]
position = Vector2( 256, 160 )
texture = ExtResource( 3 )

[node name="Camera2D" type="Camera2D" parent="Player"]
offset = Vector2( 16, 16 )
current = true
drag_margin_left = 0.0
drag_margin_top = 0.0
drag_margin_right = 0.0
drag_margin_bottom = 0.0

[node name="CanvasLayer" type="CanvasLayer" parent="."]

[node name="ColorRect" type="ColorRect" parent="CanvasLayer"]
margin_top = 26.0
margin_right = 63.0
margin_bottom = 67.0
rect_scale = Vector2( 10.1593, -0.625353 )
color = Color( 0.192157, 0.192157, 0.192157, 0.694118 )

[node name="Health" type="Label" parent="CanvasLayer"]
margin_left = 14.9999
margin_right = 78.9999
margin_bottom = 26.0
text = "Health:"
valign = 1
uppercase = true

[node name="Score" type="Label" parent="CanvasLayer"]
margin_left = 431.0
margin_right = 495.0
margin_bottom = 26.0
text = "Score:"
valign = 1
uppercase = true

[node name="Area" type="Label" parent="CanvasLayer"]
margin_left = 239.0
margin_right = 303.0
margin_bottom = 26.0
text = "Area:"
valign = 1
uppercase = true
